{
	"info": {
		"_postman_id": "99b8e9eb-441b-4064-97e4-5715a4a47917",
		"name": "Mock-OK",
		"schema": "https://schema.getpostman.com/json/collection/v2.1.0/collection.json"
	},
	"item": [
		{
			"name": "a/1",
			"event": [
				{
					"listen": "test",
					"script": {
						"id": "47809305-2230-416c-8ac8-896726735bf0",
						"exec": [
							"pm.test(\"Status code is 1\", function () {\r",
							"    pm.response.to.have.status(200);\r",
							"    console.log(\"id was found!\");\r",
							"});\r",
							"pm.test(\"Status code is 2\", function () {\r",
							"    pm.response.to.have.status(200);\r",
							"    console.log(\"id was found!\");\r",
							"});\r",
							"pm.test(\"Status code is 3\", function () {\r",
							"    pm.response.to.have.status(200);\r",
							"    console.log(\"id was found!\");\r",
							"});"
						],
						"type": "text/javascript"
					}
				}
			],
			"protocolProfileBehavior": {
				"disableBodyPruning": true
			},
			"request": {
				"method": "GET",
				"header": [],
				"body": {
					"mode": "raw",
					"raw": ""
				},
				"url": {
					"raw": "{{url}}/a/1",
					"host": [
						"{{url}}"
					],
					"path": [
						"a",
						"1"
					]
				}
			},
			"response": [
				{
					"name": "Default",
					"originalRequest": {
						"method": "GET",
						"header": [],
						"body": {
							"mode": "raw",
							"raw": ""
						},
						"url": {
							"raw": "{{url}}/a/1",
							"host": [
								"{{url}}"
							],
							"path": [
								"a",
								"1"
							]
						}
					},
					"code": 200,
					"_postman_previewlanguage": null,
					"header": null,
					"cookie": [],
					"body": "{ \"isBad\": \"false\", \"isGood\": \"true\" }"
				}
			]
		}
	],
	"protocolProfileBehavior": {}
}